Name,Supported Platforms,Language Engine,Language other,Licence,Devmaster Link,official Website
Blender Game Engine,"Windows, Linux, MacOS X","C/C++, Python","C/C++, Python",GPL,http://devmaster.net/devdb/engines/blender-game-engine,http://www.blender.org/
Cafu Engine,"Windows, Linux",C/C++,C/C++,GPL,http://devmaster.net/devdb/engines/cafu-engin,http://www.cafu.de/
Crystal Space,"Windows, Linux, MacOS X",C/C++,C/C++,LGPL,http://devmaster.net/devdb/engines/crystal-space,http://crystal.sourceforge.net/
Esenthel Engine,"Windows, Linux, MacOS X, Browser, Android, iOS","C/C++, Java, Obj-C, JavaScript","C/C++, Obj-C, JavaScript","Proprietary, free available",http://devmaster.net/devdb/engines/esenthel-engine,http://www.esenthel.com/
Irrlicht,"Windows, Linux, MacOS X","C/C++, C#, VB.net","C/C++, C#, VB.net",ZLIB,http://devmaster.net/devdb/engines/irrlicht,http://irrlicht.sourceforge.net/
jMonkey,"Windows, Linux, MacOS X, Browser, Android",Java,"Java, Ruby, Python, Javascript, PHP",BSD,http://devmaster.net/devdb/engines/jmonkeyengine,http://jmonkeyengine.com/
libgdx,"Windows, Linux, MacOS X, Browser, Android, iOS","Java, C/C++",Java,Apache 2,,http://libgdx.badlogicgames.com/index.html
Neoaxis 3D Engine,"Windows, MacOS X","C/C++, C#","C/C++, C#","Proprietary, free available",http://devmaster.net/devdb/engines/neoaxis-3d-engine,http://www.neoaxis.com/
OGRE,"Windows, Linux, MacOS X",C/C++,C/C++,MIT,http://devmaster.net/devdb/engines/ogre,http://www.ogre3d.org/
Panda3D,"Windows, Linux, MacOS X","C/C++, Pyhton","C/C++, Python",BSD,http://devmaster.net/devdb/engines/panda3d,http://www.panda3d.org/
ShiVa Engine,"Windows, Linux, MacOS X, Browser, Android, iOS",C/C++,C/C++,"Proprietary, free available",http://devmaster.net/devdb/engines/shiva-engine,http://www.stonetrip.com/
Unity,"Windows, Linux, MacOS X, Browser, Android, iOS",C/C++,"C#, JavaScript","Proprietary, free available",http://devmaster.net/devdb/engines/unity,http://unity3d.com/
,,,,,,
C4 Engine,"Windows, Linux, MacOS X",C/C++,C/C++,"Proprietary, cost",http://devmaster.net/devdb/engines/c4-engine,http://www.terathon.com/
DX Studio,Windows,"C/C++, VB","C/C++, VB","Proprietary, free available",http://devmaster.net/devdb/engines/leadwerks-engine,http://www.leadwerks.com/
Leadwerks Engine,Windows,"C/C++, C#, Java, Perl, Python","C/C++, C#, Java, Perl, Python","Proprietary, cost",http://devmaster.net/devdb/engines/visual3d-game-engine,http://www.visual3d.net/3D-Game-Engine
Visual3D Game Engine,"Windows, Browser",C#,"C/C++. C#, Ruby, Python, F#, Lua","Proprietary, cost",http://devmaster.net/devdb/engines/dx-studio,http://www.dxstudio.com/
,,,,,,
Unreal Development Kit,"Windows, Linux, MacOS X, Browser, Android, iOS",C/C++,C/C++,"Proprietary, cost",http://devmaster.net/devdb/engines/unreal-development-kit-udk,http://udk.com/
